{
    "images": [
        {
            "id": 53893572,
            "name": "22.04.3 (LTS) x64",
            "distribution": "Ubuntu",
            "slug": "ubuntu-22-04-x64",
            "public": true,
            "regions": ["nyc1", "sfo1", "nyc2", "ams2", "sgp1", "lon1", "nyc3", "ams3", "fra1", "tor1", "sfo2", "blr1"],
            "created_at": "2019-10-22T01:38:19Z",
            "min_disk_size": 20,
            "type": "snapshot",
            "size_gigabytes": 2.36,
            "description": "Ubuntu 22.04 x64 20191022",
            "tags": [],
            "status": "available",
            "error_message": ""
        }
    ],
    "links": {
        "pages": {
            "last": "https://api.digitalocean.com/v2/images?page=24&per_page=1&type=distribution",
            "next": "https://api.digitalocean.com/v2/images?page=2&per_page=1&type=distribution"
        }
    },
    "meta": {
        "total": 24
    }
}
